…
``` r
summary_tbl =
  summary(survival_df) |>
  as.data.frame() |>          
  rownames_to_column(var = "Variable") |>  
  as_tibble()

print(summary_tbl)
```

    ## # A tibble: 96 × 4
    ##    Variable Var1  Var2       Freq             
    ##    <chr>    <fct> <fct>      <chr>            
    ##  1 1        ""    "     age" "Min.   :30.00  "
    ##  2 2        ""    "     age" "1st Qu.:47.00  "
    ##  3 3        ""    "     age" "Median :54.00  "
    ##  4 4        ""    "     age" "Mean   :53.97  "
    ##  5 5        ""    "     age" "3rd Qu.:61.00  "
    ##  6 6        ""    "     age" "Max.   :69.00  "
    ##  7 7        ""    "   race"  "Black: 291  "   
    ##  8 8        ""    "   race"  "Other: 320  "   
    ##  9 9        ""    "   race"  "White:3413  "   
    ## 10 10       ""    "   race"   <NA>            
    ## # ℹ 86 more rows
…
